…
``` r
# save resulting bootstrap distribution
boot_df <- ncbirths_white %>%
  # specify the variable of interest
  specify(response = weight) %>% 
  # generate 15000 bootstrap samples
  generate(reps = 35000, type = "bootstrap") %>% 
  # calculate the mean of each bootstrap sample
  calculate(stat = "mean")

boot_df
```

    ## Response: weight (numeric)
    ## # A tibble: 35,000 × 2
    ##    replicate  stat
    ##        <int> <dbl>
    ##  1         1  7.31
    ##  2         2  7.22
    ##  3         3  7.27
    ##  4         4  7.35
    ##  5         5  7.26
    ##  6         6  7.27
    ##  7         7  7.30
    ##  8         8  7.25
    ##  9         9  7.24
    ## 10        10  7.33
    ## # ℹ 34,990 more rows
…
